<?xml version="1.0" encoding="utf-8"?>
<!-- Generator: Adobe Illustrator 16.0.0, SVG Export Plug-In . SVG Version: 6.00 Build 0)  -->
<!DOCTYPE svg PUBLIC "-//W3C//DTD SVG 1.1//EN" "http://www.w3.org/Graphics/SVG/1.1/DTD/svg11.dtd">
<svg version="1.1" id="Layer_1" xmlns="http://www.w3.org/2000/svg" xmlns:xlink="http://www.w3.org/1999/xlink" x="0px" y="0px"
	 width="1284.128px" height="1263.126px" viewBox="0 0 1284.128 1263.126" enable-background="new 0 0 1284.128 1263.126"
	 xml:space="preserve">
<polygon fill="#FFFFFF" points="20.292,1247.635 102.034,1247.635 102.034,1230.994 38.248,1230.994 38.248,1182.1 99.912,1182.1 
	99.912,1165.48 38.248,1165.48 38.248,1117.917 102.034,1117.917 102.034,1101.297 20.292,1101.297 "/>
<polygon fill="#FFFFFF" points="143.885,1101.297 125.925,1101.297 125.925,1247.635 202.861,1247.635 202.861,1230.994 
	143.885,1230.994 "/>
<polygon fill="#FFFFFF" points="212.663,1247.635 294.429,1247.635 294.429,1230.994 230.64,1230.994 230.64,1182.1 292.305,1182.1 
	292.305,1165.48 230.64,1165.48 230.64,1117.917 294.429,1117.917 294.429,1101.297 212.663,1101.297 "/>
<path fill="#FFFFFF" d="M435.46,1207.268c-16.225,21.693-35.293,26.237-48.436,26.237c-31.043,0-58.277-27.405-58.277-58.652
	c0-32.12,26.608-59.244,58.09-59.244c5.204,0,31.926,1.21,47.993,25.189l0.549,0.824h19.768l-1.083-2.568
	c-5.485-13.074-29.105-40.064-67.04-40.064c-42.744,0-76.236,33.231-76.236,75.667c0,41.618,34.29,75.476,76.443,75.476
	c21.78,0,50.917-10.737,67.336-40.859l1.491-2.743h-20.045L435.46,1207.268z"/>
<polygon fill="#FFFFFF" points="460.382,1117.917 493.146,1117.917 493.146,1247.635 511.105,1247.635 511.105,1117.917 
	543.672,1117.917 543.672,1101.297 460.382,1101.297 "/>
<path fill="#FFFFFF" d="M655.279,1149.213c0-18.428-10.161-34.653-26.498-42.35c-5.518-2.583-14.607-5.566-35.867-5.566h-38.075
	v146.338h17.963v-129.718h23.001c11.257,0,18.508,0.809,26.93,5.199c8.448,4.229,14.59,15.036,14.59,25.71
	c0,10.223-5.809,23.831-22.21,28.481c-6.192,1.894-12.422,2.041-30.101,2.041h-3.694l51.149,68.286h22.572l-40.517-53.524
	C641.298,1190.853,655.279,1169.47,655.279,1149.213"/>
<path fill="#FFFFFF" d="M743.843,1098.793c-37.112,0-77.19,29.234-77.19,76.44c0,40.598,35.343,74.898,77.19,74.898
	c42.681,0,77.403-33.949,77.403-75.659C821.246,1132.742,786.523,1098.793,743.843,1098.793 M743.843,1233.505
	c-32.113,0-59.23-26.687-59.23-58.271c0-32.986,26.569-59.814,59.23-59.814c32.773,0,59.455,26.561,59.455,59.237
	C803.298,1207.106,776.616,1233.505,743.843,1233.505"/>
<polygon fill="#FFFFFF" points="939.587,1215.993 862.992,1102.121 862.437,1101.297 840.336,1101.297 840.336,1247.635 
	858.285,1247.635 858.285,1125.79 940.452,1247.635 957.55,1247.635 957.55,1101.297 939.587,1101.297 "/>
<rect x="983.168" y="1101.296" fill="#FFFFFF" width="17.963" height="146.338"/>
<path fill="#FFFFFF" d="M1145.055,1207.268c-16.231,21.693-35.279,26.237-48.429,26.237c-31.051,0-58.28-27.405-58.28-58.652
	c0-32.12,26.596-59.244,58.083-59.244c5.199,0,31.936,1.21,48,25.189l0.534,0.824h19.778l-1.082-2.568
	c-5.488-13.074-29.095-40.064-67.033-40.064c-42.752,0-76.244,33.231-76.244,75.667c0,41.618,34.295,75.476,76.427,75.476
	c21.797,0,50.927-10.737,67.356-40.859l1.484-2.743h-20.039L1145.055,1207.268z"/>
<path fill="#FFFFFF" d="M1227.455,1163.433l-1.084-0.316c-18.287-5.27-31.5-9.083-31.5-24.689c0-11.159,8.408-23.008,23.965-23.008
	c12.692,0,23.401,10.969,23.401,23.972v1.844h17.971v-1.844c0-22.769-18.175-40.598-41.372-40.598
	c-23.896,0-41.929,17.295-41.929,40.211c0,28.187,22.621,34.779,36.144,38.713l3.498,1.026c10.188,3.019,29.158,8.654,29.158,28.293
	c0,16.577-13.658,26.469-26.871,26.469c-16.423,0-27.082-10.609-27.828-27.708l-0.062-1.772h-17.929l0.035,1.885
	c0.562,30.383,24.126,44.223,45.784,44.223c25.154,0,44.849-19.188,44.849-43.743
	C1263.685,1196.404,1260.137,1172.235,1227.455,1163.433"/>
<path fill="#FFFFFF" d="M19.704,742.983h57.218c30.135,0,45.017,3.625,55.378,8.494c25.255,11.883,40.169,36.517,40.169,64.231
	c0,32.549-23.42,65.725-66.956,68.469l63.613,83.997H140.82L64.437,866.221c28.599,0,38.336-0.316,48.373-3.342
	c24.665-7.001,37.133-27.694,37.133-47.789c0-17.647-10.04-35.919-24.633-43.209c-13.394-7.001-24.953-8.521-43.835-8.521H42.216
	v204.814H19.704V742.983z"/>
<polygon fill="#FFFFFF" points="204.444,742.97 204.444,968.175 327.689,968.175 327.689,947.77 226.957,947.77 226.957,864.701 
	324.347,864.701 324.347,844.311 226.957,844.311 226.957,763.36 327.689,763.36 327.689,742.97 "/>
<path fill="#FFFFFF" d="M573.875,909.127c-24.071,44.117-67.565,63.009-103.797,63.009c-62.98,0-117.763-49.612-117.763-116.258
	c0-66.631,53.256-116.553,117.475-116.553c57.808,0,94.343,40.465,103.17,61.46h-25.277c-24.644-36.82-64.493-41.091-78.196-41.091
	c-52.661,0-94.653,46.263-94.653,96.473c0,52.65,46.255,95.578,94.956,95.578c11.247,0,48.081-1.534,78.832-42.618H573.875z"/>
<polygon fill="#FFFFFF" points="735.156,742.97 669.099,869.283 604.897,742.97 579.926,742.97 658.167,892.993 658.167,968.175 
	680.672,968.175 680.672,892.993 759.808,742.97 "/>
<path fill="#FFFFFF" d="M980.396,909.127c-24.035,44.117-67.56,63.009-103.811,63.009c-62.973,0-117.77-49.612-117.77-116.258
	c0-66.631,53.271-116.553,117.502-116.553c57.838,0,94.342,40.465,103.149,61.46H954.2c-24.618-36.82-64.485-41.091-78.198-41.091
	c-52.638,0-94.644,46.263-94.644,96.473c0,52.65,46.27,95.578,94.959,95.578c11.244,0,48.078-1.534,78.805-42.618H980.396z"/>
<polygon fill="#FFFFFF" points="1004.094,742.97 1004.094,968.175 1119.725,968.175 1119.725,947.77 1026.595,947.77 
	1026.595,742.97 "/>
<polygon fill="#FFFFFF" points="1141.037,742.97 1141.037,968.175 1264.261,968.175 1264.261,947.77 1163.56,947.77 
	1163.56,864.701 1260.933,864.701 1260.933,844.311 1163.56,844.311 1163.56,763.36 1264.261,763.36 1264.261,742.97 "/>
<polygon fill="#FFFFFF" points="575.099,1000.864 592.513,1000.864 610.568,1052.199 610.751,1052.199 628.626,1000.864 
	646.037,1000.864 646.037,1068.686 633.492,1068.686 633.492,1017.821 633.393,1017.821 633.21,1017.821 615.883,1068.686 
	605.252,1068.686 587.838,1017.821 587.658,1017.821 587.658,1068.686 575.099,1068.686 "/>
<polygon fill="#FFFFFF" points="673.932,1043.672 651.669,1000.864 665.411,1000.864 680.183,1032.027 695.022,1000.864 
	708.87,1000.864 686.487,1043.672 686.487,1068.686 673.932,1068.686 "/>
<rect x="19.704" y="1025.982" fill="#FFFFFF" width="519.578" height="19.174"/>
<polygon fill="#FFFFFF" points="723.209,1045.156 1264.127,1045.156 1264.007,1025.982 733.581,1025.982 "/>
<path fill="#FFFFFF" d="M1006.872,347.978c-9.448,18.262-35.349,12.946-48.64-1.186c-55.282,31.983-68.405,26.895-58.428-10.46
	c-54.517,8.3-71.304,43.938-102.614,62.141c-44.193,25.67-51.466,2.807-25.788-34.14c19.026-27.395,47.382-46.994,71.071-70.484
	c-15.395-14.734,15.452-28.521,13.173-43.733c-1.957-13.277,7.746-33.288,4.629-50.97c-57.633,37.662-83.251,16.032-52.37-76.116
	c-22.67,10.557-28.375-8.354-27.439-38.818c-10.301-23.339-8.719-45.573-4.363-67.554c-1.084-0.19-2.152-0.159-3.271,0.06
	c-18.582,3.722-42.009,62.976-61.696,60.891c-11.299,39.644-26.681,26.131-42.267,10.202c-1.924,21.703-13.963,26.427-15.404,40.517
	c-6.301,61.915-29.21,57.467-65.675-1.302c-7.43,28.303-2.783,59.797-19.223,67.98c11.896,22.389,15.156,41.868,4.172,56.546
	c10.766,15.05,18.576,48.169,17.254,83.05c-2.048,53.851-24.082,42.604-36.033,8.517c-8.675-24.728-8.802-48.007-18.044-68.876
	c-20.936,5.28-29.815-29.225-46.723-36.187c-24.257,44.267-43.981-32.647-71.462-35.592c-2.702,22.106-22.192-9.031-33.274-13.548
	c-8.623,3.184-46.666-34.291-66.73-36.539c17.298,29.612,31.202,58.066,12.366,75.273c10.688,37.621,14.171,48.616-6.737,44.619
	c-7.113,22.793,23.205,43.853,21.492,56.666c-2.199,16.587-18.234,22.705-44.039,17.203c10.782,32.486,73.372,65.622,65.938,80.598
	c54.147,31.646,75.181,55.388-28.992,49.281c12.405,16.113-41.523,15.19-55.117-3.726c-9.098,50.234,69.172,56.092,51.648,71.417
	c10.386,17.523,71.241,19.465,36.74,32.359c28.474,33.808,149.946,3.433,97.122,64.304c30.66-11.11,42.256-9.689,42.435-0.774
	c18.069-13.383,30.526-17.999,35.976-11.666c7.282-2.807,14.237-6.135,20.897-9.892l-7.135-11.892l-46.037-11.489l-30.364-50.541
	l-31.617-7.895c-3.775,5.563-10.709,8.493-17.594,6.783c-8.795-2.205-14.171-11.138-11.979-19.898
	c2.192-8.802,11.132-14.163,19.933-11.968c6.885,1.716,11.642,7.553,12.36,14.248l20.771,5.196l-11.266-18.765
	c-2.304,0.291-4.7,0.182-7.085-0.408c-10.406-2.604-16.753-13.182-14.16-23.568c2.592-10.427,13.164-16.774,23.585-14.177
	c10.42,2.603,16.753,13.174,14.163,23.595c-1.013,4.053-3.236,7.48-6.206,10.027l46.646,77.653l30.724,7.67l-6.564-10.942
	l2.227-8.894l-15.093-25.111c-0.693-0.049-1.411-0.123-2.104-0.306c-6.233-1.555-10.043-7.905-8.485-14.16
	c1.555-6.238,7.908-10.041,14.146-8.485c6.251,1.558,10.062,7.897,8.51,14.142c-0.38,1.513-1.048,2.864-1.91,4.032l8.76,14.564
	l9.34-37.492l-51.071-12.739L402.792,328.826c-2.416,0.393-4.95,0.323-7.465-0.303c-9.868-2.462-15.898-12.507-13.446-22.378
	c2.47-9.851,12.507-15.87,22.375-13.408c9.868,2.463,15.863,12.486,13.4,22.337c-0.844,3.404-2.592,6.325-4.907,8.625
	l104.38,173.803l27.03,6.744l18.465-11.1l-30.769-7.673l6.833-27.352l-51.343-85.468c-2.051,0.348-4.179,0.274-6.325-0.257
	c-8.433-2.104-13.552-10.66-11.462-19.061c2.107-8.421,10.638-13.544,19.068-11.447c8.422,2.097,13.562,10.638,11.455,19.064
	c-0.567,2.294-1.636,4.366-3.072,6.093l45.506,75.762l3.701-14.832c-9.182-4.866-14.245-15.561-11.634-26.073
	c3.099-12.411,15.715-19.979,28.113-16.882c12.384,3.088,19.986,15.697,16.887,28.108c-2.611,10.512-12.138,17.569-22.537,17.552
	l-11.649,46.681l30.748,7.673l18.467-11.093l-14.191-23.652l46.829-187.716c-7.192-4.278-11.075-12.908-8.94-21.432
	c2.593-10.406,13.168-16.756,23.574-14.16c10.4,2.593,16.746,13.172,14.15,23.581c-2.114,8.518-9.619,14.319-17.964,14.713
	l-45.714,183.217l11.832,19.687l21.393-12.869l32.447-130.002c-3.054-2.78-4.472-7.121-3.395-11.399
	c1.552-6.248,7.863-10.065,14.129-8.507c6.23,1.552,10.05,7.902,8.488,14.153c-1.072,4.275-4.391,7.427-8.381,8.458l-33.564,134.512
	l-75.81,45.545l15.075,3.761l-16.981,68.063l19.384,32.282c13.01-8.69,24.686-19.434,34.759-32.613
	c-20.849,93.173-20.356,89.429-30.879,145.19c2.857,2.062,17.503,0.761,19.913,1.176l17.386-105.64l13.187-52.862l-18.154-30.206
	c-1.85,0.299-3.827,0.253-5.77-0.232c-7.683-1.921-12.397-9.753-10.469-17.454c1.921-7.701,9.749-12.376,17.446-10.466
	c7.687,1.918,12.362,9.731,10.449,17.429c-0.444,1.776-1.204,3.387-2.178,4.791l4.194,6.962l15.433-61.868l33.858-20.349
	c-0.819-3.077-0.893-6.403-0.081-9.716c2.604-10.4,13.196-16.757,23.589-14.157c10.399,2.596,16.767,13.182,14.171,23.589
	c-2.59,10.399-13.189,16.759-23.603,14.164c-3.146-0.789-5.956-2.327-8.205-4.363l-30.029,18.027l-17.021,68.229l8.32,13.847
	l-8.158,32.626c5.935,7.838,13.436,16.746,16.776,25.041l14.728-59.078l17.242-10.361L674.896,539
	c-1.604,0.177-3.335,0.103-5.023-0.313c-7.715-1.935-12.395-9.748-10.474-17.445c1.929-7.708,9.713-12.391,17.425-10.473
	c7.709,1.927,12.381,9.72,10.448,17.427c-0.499,2.027-1.407,3.818-2.592,5.359l8.739,14.582l11.722-7.026l26.719-107.089
	l-35.021-58.242l37.791-151.445c-5.587-3.746-8.496-10.708-6.793-17.597c2.206-8.781,11.138-14.148,19.926-11.954
	c8.788,2.189,14.149,11.124,11.968,19.912c-1.734,6.885-7.581,11.648-14.272,12.345l-36.661,146.942l35.004,58.276l-25.139,100.737
	l86.324-51.853l10.006-40.092l51.328-30.84c-1.146-3.851-1.308-8.038-0.267-12.214c3.096-12.383,15.69-19.943,28.06-16.862
	c12.411,3.1,19.99,15.701,16.915,28.092c-3.116,12.404-15.719,19.976-28.116,16.879c-4.3-1.069-8.043-3.296-10.935-6.258
	l-47.269,28.383l-9.998,40.099l-138.368,83.114l-8.155,32.718l30.333,7.571l29.414-17.689l0.353-1.457l-21.115-5.276
	c-2.728,2.118-6.379,3.004-9.953,2.11c-6.225-1.554-10.051-7.908-8.518-14.121c1.568-6.269,7.94-10.072,14.168-8.521
	c4.91,1.231,8.316,5.39,8.773,10.174l19.342,4.813l3.866-15.486c-4.506-3.374-6.775-9.221-5.34-14.988
	c1.928-7.7,9.766-12.408,17.453-10.48c7.663,1.911,12.387,9.742,10.463,17.439c-1.442,5.781-6.206,9.851-11.754,10.724
	l-3.866,15.506l15.535,3.878l126.133-75.772c-0.809-3.057-0.872-6.36-0.07-9.632c2.61-10.417,13.178-16.753,23.578-14.164
	c10.434,2.603,16.768,13.168,14.184,23.578c-2.603,10.403-13.178,16.763-23.604,14.168c-3.194-0.809-5.974-2.347-8.261-4.419
	l-130.176,78.16l-20.024-4.989l-1.477,5.946l-37.31,22.445l-34.825-8.69l-8.196,32.837c3.377,10.758,9.143,19.152,20.604,24.901
	c23.722,11.892,35.005,29.306,41.499,40.19c3.775-21.615,1.861-25,8.542-39.986c12.964-1.956,40.454,11.532,74.959,39.986
	c10.343-22.037,31.05-11.652,56.888,14.705c0.576-29.144,36.51-29.481,88.429-2.766c-2.681-51.117-64.979-57.146-60.145-84.25
	c-13.221-7.634-27.11-14.234-39.712-22.874c-44.447-30.466-51.947-53.088,47.93-44.912c6.178-15.314,25.718-16.45,43.604-12.517
	c17.09-10.931,28.116-22.04,45.402-23.24c-45.62-28.919-52.932-49.918-5.578-61.548c16.457-4.042,25.471-12.159,35.511-22.815
	c-18.751-6.987-41.583-13.928,5.875-22.125c1.365-15.16,5.299-27.849,19.892-30.245c11.532-17.453,28.834-30.054,47.155-29.78
	C1059.566,341.089,1013.909,368.458,1006.872,347.978"/>
<path fill="#FFFFFF" d="M910.31,509.673c1.133-4.425-1.604-8.957-6.03-10.061c-4.426-1.098-8.964,1.621-10.054,6.037
	c-1.112,4.436,1.618,8.94,6.05,10.047C904.708,516.801,909.219,514.106,910.31,509.673"/>
<path fill="#FFFFFF" d="M746.59,555.556c0.437-1.721-0.619-3.472-2.347-3.898c-1.717-0.436-3.447,0.623-3.884,2.336
	c-0.442,1.721,0.605,3.465,2.343,3.891C744.409,558.321,746.171,557.273,746.59,555.556"/>
<path fill="#FFFFFF" d="M900.185,406.514c1.59-6.417-2.336-12.939-8.768-14.544c-6.41-1.601-12.947,2.308-14.543,8.725
	c-1.604,6.431,2.336,12.989,8.725,14.582C892.029,416.875,898.573,412.945,900.185,406.514"/>
<path fill="#FFFFFF" d="M738.678,209.439c-0.696,2.818,1.013,5.689,3.827,6.386c2.815,0.703,5.689-1.017,6.386-3.835
	c0.693-2.807-1.017-5.678-3.832-6.382C742.256,204.904,739.388,206.628,738.678,209.439"/>
<path fill="#FFFFFF" d="M670.241,523.943c-0.439,1.728,0.604,3.466,2.325,3.901c1.703,0.423,3.474-0.622,3.892-2.346
	c0.423-1.723-0.634-3.472-2.336-3.898C672.409,521.171,670.656,522.226,670.241,523.943"/>
<path fill="#FFFFFF" d="M568.731,410.412c1.605-6.435-2.322-12.947-8.739-14.551c-6.42-1.604-12.964,2.305-14.561,8.729
	c-1.607,6.431,2.336,12.953,8.753,14.553C560.608,420.741,567.125,416.836,568.731,410.412"/>
<path fill="#FFFFFF" d="M645.238,247.86c1.084-4.45-1.625-8.942-6.064-10.054c-4.419-1.104-8.933,1.59-10.048,6.04
	c-1.105,4.433,1.597,8.94,6.029,10.045C639.595,254.995,644.109,252.3,645.238,247.86"/>
<path fill="#FFFFFF" d="M607.757,522.233c-0.415,1.73,0.64,3.49,2.354,3.926c1.72,0.422,3.465-0.634,3.898-2.364
	c0.422-1.707-0.627-3.466-2.315-3.891C609.952,519.472,608.179,520.526,607.757,522.233"/>
<path fill="#FFFFFF" d="M702.98,453.037c1.087-4.439-1.611-8.936-6.044-10.034c-4.43-1.108-8.94,1.583-10.044,6.016
	c-1.115,4.436,1.604,8.947,6.022,10.052C697.372,460.179,701.861,457.479,702.98,453.037"/>
<path fill="#FFFFFF" d="M433.579,525.808c-0.71,2.821,1.006,5.66,3.821,6.36c2.8,0.704,5.674-0.992,6.37-3.813
	c0.711-2.835-1.026-5.695-3.82-6.392C437.135,521.262,434.283,522.979,433.579,525.808"/>
<path fill="#FFFFFF" d="M454.093,490.532c-1.108,4.426,1.618,8.922,6.044,10.026c4.443,1.108,8.96-1.579,10.058-6.009
	c1.119-4.436-1.583-8.96-6.037-10.065C459.729,483.383,455.21,486.092,454.093,490.532"/>
<path fill="#FFFFFF" d="M392.748,308.85c-0.985,3.909,1.386,7.866,5.263,8.837c3.895,0.975,7.856-1.407,8.823-5.316
	c0.975-3.88-1.407-7.82-5.298-8.794C397.662,302.604,393.708,304.973,392.748,308.85"/>
<path fill="#FFFFFF" d="M480.386,356.041c-0.616,2.456,0.893,4.918,3.321,5.53c2.452,0.609,4.925-0.865,5.53-3.324
	c0.623-2.453-0.869-4.947-3.296-5.555C483.486,352.083,481.001,353.584,480.386,356.041"/>
</svg>
